cpu_3_tb.vcd
$date
	Thu Jan 21 12:37:14 2023
$end
$version
	Icarus Verilog
$end
$timescale
	1s
$end
$scope module cpu_3_tb $end
$var reg 1 ! clk $end
$var reg 1 " reset $end
$scope module cpu_3_0 $end
$var wire 4 # ALUControl [3:0] $end
$var wire 1 $ ALUSrc $end
$var wire 1 % Branch $end
$var wire 1 & BranchAndZero $end
$var wire 32 ' D [31:0] $end
$var wire 1 ( Jump $end
$var wire 1 ) MemReadB $end
$var wire 1 * MemReadW $end
$var wire 1 + MemWriteB $end
$var wire 1 , MemWriteW $end
$var wire 1 - MemtoReg $end
$var wire 32 . Q [31:0] $end
$var wire 5 / R2 [4:0] $end
$var wire 32 0 RA [31:0] $end
$var wire 32 1 RB [31:0] $end
$var wire 32 2 RB2 [31:0] $end
$var wire 32 3 ReadData [31:0] $end
$var wire 1 4 RegWrite $end
$var wire 32 5 WriteData [31:0] $end
$var wire 1 6 Wtype $end
$var wire 1 7 Zero $end
$var wire 1 8 clk $end
$var wire 32 9 extended [31:0] $end
$var wire 32 : instr [31:0] $end
$var wire 27 ; instrShifted [26:0] $end
$var wire 32 < pc4 [31:0] $end
$var wire 32 = pc4orBranch [31:0] $end
$var wire 32 > pc4shifted [31:0] $end
$var wire 32 ? res [31:0] $end
$var wire 1 @ reset $end
$var wire 32 A shifted [31:0] $end
$scope module flipflop_32_0 $end
$var wire 32 B D [31:0] $end
$var wire 1 8 clk $end
$var wire 1 @ reset $end
$var reg 32 C Q [31:0] $end
$var reg 32 D init [31:0] $end
$upscope $end
$scope module adder_32_0 $end
$var wire 32 E a [31:0] $end
$var wire 32 F b [31:0] $end
$var reg 32 G sum [31:0] $end
$upscope $end
$scope module shift_left_2_25_27_0 $end
$var wire 25 H a [24:0] $end
$var reg 27 I shifted [26:0] $end
$upscope $end
$scope module imem_0 $end
$var wire 32 J s [31:0] $end
$var reg 32 K y [31:0] $end
$upscope $end
$scope module multiplexer_5_0 $end
$var wire 5 L a [4:0] $end
$var wire 5 M b [4:0] $end
$var wire 1 6 s $end
$var reg 5 N y [4:0] $end
$upscope $end
$scope module rmem_0 $end
$var wire 1 4 RegWrite $end
$var wire 32 O WriteData [31:0] $end
$var wire 5 P WriteRegister [4:0] $end
$var wire 1 8 clk $end
$var wire 5 Q ra [4:0] $end
$var wire 5 R rb [4:0] $end
$var reg 32 S RA [31:0] $end
$var reg 32 T RB [31:0] $end
$var reg 32 U rd0 [31:0] $end
$var reg 32 V rd1 [31:0] $end
$var reg 32 W rd2 [31:0] $end
$var reg 32 X rd3 [31:0] $end
$var reg 32 Y rd4 [31:0] $end
$var reg 32 Z rq0 [31:0] $end
$var reg 32 [ rq1 [31:0] $end
$var reg 32 \ rq2 [31:0] $end
$var reg 32 ] rq3 [31:0] $end
$var reg 32 ^ rq4 [31:0] $end
$upscope $end
$scope module control_0 $end
$var wire 7 _ instr [6:0] $end
$var reg 4 ` ALUControl [3:0] $end
$var reg 1 a ALUSrc $end
$var reg 1 b Branch $end
$var reg 1 c Jump $end
$var reg 1 d MemReadB $end
$var reg 1 e MemReadW $end
$var reg 1 f MemWriteB $end
$var reg 1 g MemWriteW $end
$var reg 1 h MemtoReg $end
$var reg 1 i RegWrite $end
$upscope $end
$scope module or_2_0 $end
$var wire 1 + a $end
$var wire 1 , b $end
$var reg 1 j y $end
$upscope $end
$scope module signextend_32_0 $end
$var wire 32 k instr [31:0] $end
$var reg 32 l extended [31:0] $end
$upscope $end
$scope module shift_left_2_32_32_0 $end
$var wire 32 m a [31:0] $end
$var reg 32 n shifted [31:0] $end
$upscope $end
$scope module adder_32_1 $end
$var wire 32 o a [31:0] $end
$var wire 32 p b [31:0] $end
$var reg 32 q sum [31:0] $end
$upscope $end
$scope module and_2_0 $end
$var wire 1 % a $end
$var wire 1 7 b $end
$var reg 1 r y $end
$upscope $end
$scope module multiplexer_32_2_2 $end
$var wire 32 s a [31:0] $end
$var wire 32 t b [31:0] $end
$var wire 1 & s $end
$var reg 32 u y [31:0] $end
$upscope $end
$scope module multiplexer_32_2_3 $end
$var wire 32 v a [31:0] $end
$var wire 32 w b [31:0] $end
$var wire 1 ( s $end
$var reg 32 x y [31:0] $end
$upscope $end
$scope module multiplexer_32_2_0 $end
$var wire 32 y a [31:0] $end
$var wire 32 z b [31:0] $end
$var wire 1 $ s $end
$var reg 32 { y [31:0] $end
$upscope $end
$scope module alu_0 $end
$var wire 4 | ALUControl [3:0] $end
$var wire 1 7 Zero $end
$var wire 32 } a [31:0] $end
$var wire 32 ~ b [31:0] $end
$var reg 32 !" res [31:0] $end
$upscope $end
$scope module dmem_0 $end
$var wire 1 ) MemReadB $end
$var wire 1 * MemReadW $end
$var wire 1 + MemWriteB $end
$var wire 1 , MemWriteW $end
$var wire 32 "" WriteData [31:0] $end
$var wire 32 #" address [31:0] $end
$var wire 1 8 clk $end
$var reg 32 $" ReadData [31:0] $end
$var integer 32 %" i [31:0] $end
$upscope $end
$scope module multiplexer_32_2_1 $end
$var wire 32 &" a [31:0] $end
$var wire 32 '" b [31:0] $end
$var wire 1 - s $end
$var reg 32 (" y [31:0] $end
$upscope $end
$upscope $end
$upscope $end
$enddefinitions $end
#0
$dumpvars
bx ("
bx '"
bx &"
b1000000000 %"
bx $"
bx #"
bx ""
bx !"
bx ~
bx }
bx |
bx {
bx z
bx y
bx x
bx w
bx v
bx u
bx t
bx s
xr
bx q
bx p
bx o
bx n
bx m
bx l
bx k
xj
xi
xh
xg
xf
xe
xd
xc
xb
xa
bx `
bx _
bx ^
bx ]
bx \
bx [
bx Z
b1000000000 Y
b0 X
b100 W
b0 V
b0 U
bx T
bx S
bx R
bx Q
bx P
bx O
bx N
bx M
bx L
bx K
bx J
bx I
bx H
bx G
b100 F
bx E
b0 D
bx C
bx B
bx A
0@
bx ?
bx >
bx =
bx <
bx ;
bx :
bx 9
08
x7
x6
bx 5
x4
bx 3
bx 2
bx 1
bx 0
bx /
bx .
x-
x,
x+
x*
x)
x(
bx '
x&
x%
x$
bx #
0"
0!
$end
#55
1"
1@
#81
b1000000000 %"
1!
18
#86
b0 C
b0 .
b0 E
b0 J
#91
b1000000000 ^
b0 ]
b100 \
b0 [
b0 Z
b0xxxxxxxxxxxxxxxxxxxxxxxxxxx w
b100 G
b100 <
b100 o
b100 s
#126
b110000100000000000000000 I
b110000100000000000000000 w
b110000100000000000000000 ;
b10001 _
b11 P
b1 Q
b11 M
b0 L
b1100001000000000000000 H
b100010001100001000000000000000 K
b100010001100001000000000000000 :
b100010001100001000000000000000 k
#128
b0xx N
b0xx /
b0xx R
#131
b0 n
b0 A
b0 p
b0 l
b0 9
b0 m
b0 z
#136
0r
0&
0j
06
b100 q
b100 >
b100 t
b0 {
b0 2
b0 ~
0c
0(
0b
0%
b0 `
b0 #
b0 |
1h
1-
0g
0,
0f
0+
1e
1*
0d
0)
1a
1$
1i
14
#138
b0 N
b0 /
b0 R
#141
b100 u
b100 =
b100 v
#146
bx X
b0 S
17
b0 0
b0 }
b100 x
b100 '
b100 B
#151
b100 D
#158
b0 T
b0 1
b0 y
b0 ""
#162
0!
08
#186
b0 !"
b0 ?
b0 #"
b0 &"
#226
b1 $"
b1 3
b1 '"
#231
b1 ("
b1 5
b1 O
#241
b1 X
#243
b1000000000 %"
1!
18
#248
b100 C
b100 .
b100 E
b100 J
#253
b1 ]
b1000 G
b1000 <
b1000 o
b1000 s
#258
b1000 u
b1000 =
b1000 v
b1000 q
b1000 >
b1000 t
#263
b1000 x
b1000 '
b1000 B
#268
b1000 D
#288
b11000000000000 I
b11000000000000 w
b11000000000000 ;
b0 _
b0 P
b0 Q
b0 M
b11 L
b110000000000 H
b110000000000 K
b110000000000 :
b110000000000 k
#290
b11 N
b11 /
b11 R
#298
b1 U
0h
0-
0a
0$
#303
b0 ("
b0 5
b0 O
#310
b1 T
b1 1
b1 y
b1 ""
#313
b0 U
#315
b1 {
07
b1 2
b1 ~
#324
0!
08
#355
b1 !"
b1 ?
b1 #"
b1 &"
#360
b1 ("
b1 5
b1 O
#370
b1 U
#395
b1000000000000000000000000 $"
b1000000000000000000000000 3
b1000000000000000000000000 '"
#405
b1000000000 %"
1!
18
#410
b1000 C
b1000 .
b1000 E
b1000 J
#415
b1 Z
b1100 G
b1100 <
b1100 o
b1100 s
#420
b1100 u
b1100 =
b1100 v
b1100 q
b1100 >
b1100 t
#425
b1100 x
b1100 '
b1100 B
#430
b1100 D
#450
b10000100010000000000000 I
b10000100010000000000000 w
b10000100010000000000000 ;
b1 P
b1 Q
b1 M
b10 L
b100001000100000000000 H
b100001000100000000000 K
b100001000100000000000 :
b100001000100000000000 k
#452
b10 N
b10 /
b10 R
#460
b1 V
#472
b100 T
b100 1
b100 y
b100 ""
#477
b100 {
b100 2
b100 ~
#486
0!
08
#517
b100 !"
b100 ?
b100 #"
b100 &"
#522
b100 ("
b100 5
b100 O
#532
b100 V
#557
b1 $"
b1 3
b1 '"
#567
b1000000000 %"
1!
18
#572
b1100 C
b1100 .
b1100 E
b1100 J
#577
b100 [
b10000 G
b10000 <
b10000 o
b10000 s
#582
b10000 u
b10000 =
b10000 v
b10000 q
b10000 >
b10000 t
#587
b10000 x
b10000 '
b10000 B
#592
b10000 D
#612
b100100000000000100 I
b100100000000000100 w
b100100000000000100 ;
b110000 _
b0 P
b0 M
b100 L
b1001000000000001 H
b1100000000000001001000000000001 K
b1100000000000001001000000000001 :
b1100000000000001001000000000001 k
#614
b100 N
b100 /
b100 R
#617
b100 n
b100 A
b100 p
b1 l
b1 9
b1 m
b1 z
#622
b100 U
b10100 q
b10100 >
b10100 t
1b
1%
b1 `
b1 #
b1 |
0i
04
#632
b1 U
#634
1r
1&
b1000000000 T
b1000000000 1
b1000000000 y
b1000000000 ""
b100 S
17
b100 0
b100 }
#639
0r
0&
b10100 u
b10100 =
b10100 v
b1000000000 {
07
b1000000000 2
b1000000000 ~
#644
b10000 u
b10000 =
b10000 v
b10100 x
b10100 '
b10100 B
#648
0!
08
#649
b10000 x
b10000 '
b10000 B
b10100 D
#654
b10000 D
#662
b11111111111111111111111111111100 !"
b11111111111111111111111111111100 ?
b11111111111111111111111111111100 #"
b11111111111111111111111111111100 &"
#667
b11111111111111111111111111111100 ("
b11111111111111111111111111111100 5
b11111111111111111111111111111100 O
#674
b0 !"
b0 ?
b0 #"
b0 &"
bx $"
bx 3
bx '"
#679
b11111111111111111111111000000100 !"
b11111111111111111111111000000100 ?
b11111111111111111111111000000100 #"
b11111111111111111111111000000100 &"
b0 ("
b0 5
b0 O
#684
b11111111111111111111111000000100 ("
b11111111111111111111111000000100 5
b11111111111111111111111000000100 O
#729
b1000000000 %"
1!
18
#734
b10000 C
b10000 .
b10000 E
b10000 J
#739
b10100 G
b10100 <
b10100 o
b10100 s
#744
b10100 u
b10100 =
b10100 v
b11000 q
b11000 >
b11000 t
#749
b10100 x
b10100 '
b10100 B
#754
b10100 D
#774
b0 I
b0 w
b0 ;
b110001 _
b0 Q
b0 L
b0 H
b1100010000000000000000000000000 K
b1100010000000000000000000000000 :
b1100010000000000000000000000000 k
#776
b0 N
b0 /
b0 R
#784
1c
1(
#789
b0 x
b0 '
b0 B
#794
b1 S
b1 0
b1 }
b0 D
#796
b1 T
b1 1
b1 y
b1 ""
#801
1r
1&
b1 {
17
b1 2
b1 ~
#806
b11000 u
b11000 =
b11000 v
#810
0!
08
#834
b11111111111111111111111000000001 !"
b11111111111111111111111000000001 ?
b11111111111111111111111000000001 #"
b11111111111111111111111000000001 &"
#839
b11111111111111111111111000000001 ("
b11111111111111111111111000000001 5
b11111111111111111111111000000001 O
#841
b0 !"
b0 ?
b0 #"
b0 &"
#846
b0 ("
b0 5
b0 O
#881
b1 $"
b1 3
b1 '"
#891
b1000000000 %"
1!
18
#896
b0 C
b0 .
b0 E
b0 J
#901
b100 G
b100 <
b100 o
b100 s
#906
b1000 u
b1000 =
b1000 v
b1000 q
b1000 >
b1000 t
#936
b110000100000000000000000 I
b110000100000000000000000 w
b110000100000000000000000 ;
b10001 _
b11 P
b1 Q
b11 M
b1100001000000000000000 H
b100010001100001000000000000000 K
b100010001100001000000000000000 :
b100010001100001000000000000000 k
#941
b0 n
b0 A
b0 p
b110000100000000000000000 x
b110000100000000000000000 '
b110000100000000000000000 B
b0 l
b0 9
b0 m
b0 z
#946
0r
0&
b100 q
b100 >
b100 t
b110000100000000000000000 D
b0 {
07
b0 2
b0 ~
0c
0(
0b
0%
b0 `
b0 #
b0 |
1h
1-
1a
1$
1i
14
#951
b100 u
b100 =
b100 v
b1000 x
b1000 '
b1000 B
b1 ("
b1 5
b1 O
#956
b0 X
b100 S
b100 0
b100 }
b100 x
b100 '
b100 B
b1000 D
#961
b1 X
b100 D
#972
0!
08
#986
b1 !"
b1 ?
b1 #"
b1 &"
#996
b100 !"
b100 ?
b100 #"
b100 &"
#1053
b1000000000 %"
1!
18
#1058
b100 C
b100 .
b100 E
b100 J
#1063
b1000 G
b1000 <
b1000 o
b1000 s
#1068
b1000 u
b1000 =
b1000 v
b1000 q
b1000 >
b1000 t
#1073
b1000 x
b1000 '
b1000 B
#1078
b1000 D
#1098
b11000000000000 I
b11000000000000 w
b11000000000000 ;
b0 _
b0 P
b0 Q
b0 M
b11 L
b110000000000 H
b110000000000 K
b110000000000 :
b110000000000 k
#1100
b11 N
b11 /
b11 R
#1108
0h
0-
0a
0$
#1113
b100 ("
b100 5
b100 O
b1 {
b1 2
b1 ~
#1118
b1 S
17
b1 0
b1 }
#1123
b100 U
#1134
0!
08
#1153
b101 !"
b101 ?
b101 #"
b101 &"
#1158
b10 !"
b10 ?
b10 #"
b10 &"
b101 ("
b101 5
b101 O
#1163
b10 ("
b10 5
b10 O
#1168
b101 U
#1173
b10 U
#1193
b10000000000000000 $"
b10000000000000000 3
b10000000000000000 '"
#1215
b1000000000 %"
1!
18
#1220
b1000 C
b1000 .
b1000 E
b1000 J
#1225
b10 Z
b1100 G
b1100 <
b1100 o
b1100 s
#1230
b1100 u
b1100 =
b1100 v
b1100 q
b1100 >
b1100 t
#1235
b1100 x
b1100 '
b1100 B
#1240
b1100 D
#1260
b10000100010000000000000 I
b10000100010000000000000 w
b10000100010000000000000 ;
b1 P
b1 Q
b1 M
b10 L
b100001000100000000000 H
b100001000100000000000 K
b100001000100000000000 :
b100001000100000000000 k
#1262
b10 N
b10 /
b10 R
#1270
b10 V
#1280
b100 S
07
b100 0
b100 }
#1282
b100 T
b100 1
b100 y
b100 ""
#1287
b100 {
17
b100 2
b100 ~
#1296
0!
08
#1320
b101 !"
b101 ?
b101 #"
b101 &"
#1322
b1000000000000000000000000 $"
b1000000000000000000000000 3
b1000000000000000000000000 '"
#1325
b101 ("
b101 5
b101 O
#1327
b1000 !"
b1000 ?
b1000 #"
b1000 &"
#1332
b1000 ("
b1000 5
b1000 O
#1335
b101 V
#1342
b1000 V
#1367
b1 $"
b1 3
b1 '"
#1377
b1000000000 %"
1!
18
#1382
b1100 C
b1100 .
b1100 E
b1100 J
#1387
b1000 [
b10000 G
b10000 <
b10000 o
b10000 s
#1392
b10000 u
b10000 =
b10000 v
b10000 q
b10000 >
b10000 t
#1397
b10000 x
b10000 '
b10000 B
#1402
b10000 D
#1422
b100100000000000100 I
b100100000000000100 w
b100100000000000100 ;
b110000 _
b0 P
b0 M
b100 L
b1001000000000001 H
b1100000000000001001000000000001 K
b1100000000000001001000000000001 :
b1100000000000001001000000000001 k
#1424
b100 N
b100 /
b100 R
#1427
b100 n
b100 A
b100 p
b1 l
b1 9
b1 m
b1 z
#1432
b1000 U
1r
1&
b10100 q
b10100 >
b10100 t
1b
1%
b1 `
b1 #
b1 |
0i
04
#1437
b10100 u
b10100 =
b10100 v
#1442
b10 U
b10100 x
b10100 '
b10100 B
#1444
0r
0&
b1000000000 T
b1000000000 1
b1000000000 y
b1000000000 ""
b1000 S
07
b1000 0
b1000 }
#1447
b10100 D
#1449
b10000 u
b10000 =
b10000 v
b1000000000 {
b1000000000 2
b1000000000 ~
#1454
b10000 x
b10000 '
b10000 B
#1458
0!
08
#1459
b10000 D
#1472
b0 !"
b0 ?
b0 #"
b0 &"
#1477
b0 ("
b0 5
b0 O
#1484
b100 !"
b100 ?
b100 #"
b100 &"
#1489
b11111111111111111111111000001000 !"
b11111111111111111111111000001000 ?
b11111111111111111111111000001000 #"
b11111111111111111111111000001000 &"
b100 ("
b100 5
b100 O
#1494
b11111111111111111111111000001000 ("
b11111111111111111111111000001000 5
b11111111111111111111111000001000 O
#1524
bx $"
bx 3
bx '"
#1539
b1000000000 %"
1!
18
#1544
b10000 C
b10000 .
b10000 E
b10000 J
#1549
b10100 G
b10100 <
b10100 o
b10100 s
#1554
b10100 u
b10100 =
b10100 v
b11000 q
b11000 >
b11000 t
#1559
b10100 x
b10100 '
b10100 B
#1564
b10100 D
#1584
b0 I
b0 w
b0 ;
b110001 _
b0 Q
b0 L
b0 H
b1100010000000000000000000000000 K
b1100010000000000000000000000000 :
b1100010000000000000000000000000 k
#1586
b0 N
b0 /
b0 R
#1594
1c
1(
#1599
b0 x
b0 '
b0 B
#1604
b10 S
b10 0
b10 }
b0 D
#1606
b10 T
b10 1
b10 y
b10 ""
#1611
1r
1&
b10 {
17
b10 2
b10 ~
#1616
b11000 u
b11000 =
b11000 v
#1620
0!
08
#1644
b11111111111111111111111000000010 !"
b11111111111111111111111000000010 ?
b11111111111111111111111000000010 #"
b11111111111111111111111000000010 &"
#1649
b11111111111111111111111000000010 ("
b11111111111111111111111000000010 5
b11111111111111111111111000000010 O
#1651
b0 !"
b0 ?
b0 #"
b0 &"
#1656
b0 ("
b0 5
b0 O
#1691
b1 $"
b1 3
b1 '"
#1701
b1000000000 %"
1!
18
#1706
b0 C
b0 .
b0 E
b0 J
#1711
b100 G
b100 <
b100 o
b100 s
#1716
b1000 u
b1000 =
b1000 v
b1000 q
b1000 >
b1000 t
#1746
b110000100000000000000000 I
b110000100000000000000000 w
b110000100000000000000000 ;
b10001 _
b11 P
b1 Q
b11 M
b1100001000000000000000 H
b100010001100001000000000000000 K
b100010001100001000000000000000 :
b100010001100001000000000000000 k
#1751
b0 n
b0 A
b0 p
b110000100000000000000000 x
b110000100000000000000000 '
b110000100000000000000000 B
b0 l
b0 9
b0 m
b0 z
#1756
0r
0&
b100 q
b100 >
b100 t
b110000100000000000000000 D
b0 {
07
b0 2
b0 ~
0c
0(
0b
0%
b0 `
b0 #
b0 |
1h
1-
1a
1$
1i
14
#1761
b100 u
b100 =
b100 v
b1000 x
b1000 '
b1000 B
b1 ("
b1 5
b1 O
#1766
b0 X
b1000 S
b1000 0
b1000 }
b100 x
b100 '
b100 B
b1000 D
#1771
b1 X
b100 D
#1782
0!
08
#1796
b10 !"
b10 ?
b10 #"
b10 &"
#1806
b1000 !"
b1000 ?
b1000 #"
b1000 &"
#1863
b1000000000 %"
1!
18
#1868
b100 C
b100 .
b100 E
b100 J
#1873
b1000 G
b1000 <
b1000 o
b1000 s
#1878
b1000 u
b1000 =
b1000 v
b1000 q
b1000 >
b1000 t
#1883
b1000 x
b1000 '
b1000 B
#1888
b1000 D
#1908
b11000000000000 I
b11000000000000 w
b11000000000000 ;
b0 _
b0 P
b0 Q
b0 M
b11 L
b110000000000 H
b110000000000 K
b110000000000 :
b110000000000 k
#1910
b11 N
b11 /
b11 R
#1918
b1 U
0h
0-
0a
0$
#1923
b1000 ("
b1000 5
b1000 O
b10 {
b10 2
b10 ~
#1928
b10 S
17
b10 0
b10 }
#1930
b1 T
b1 1
b1 y
b1 ""
#1933
b1000 U
#1935
b1 {
07
b1 2
b1 ~
#1944
0!
08
#1963
b1010 !"
b1010 ?
b1010 #"
b1010 &"
#1968
b100 !"
b100 ?
b100 #"
b100 &"
b1010 ("
b1010 5
b1010 O
#1973
b100 ("
b100 5
b100 O
#1975
b11 !"
b11 ?
b11 #"
b11 &"
#1978
b1010 U
#1980
b11 ("
b11 5
b11 O
#1983
b100 U
#1990
b11 U
#2015
b100000000 $"
b100000000 3
b100000000 '"
#2025
b1000000000 %"
1!
18
#2030
b1000 C
b1000 .
b1000 E
b1000 J
#2035
b11 Z
b1100 G
b1100 <
b1100 o
b1100 s
#2040
b1100 u
b1100 =
b1100 v
b1100 q
b1100 >
b1100 t
#2045
b1100 x
b1100 '
b1100 B
#2050
b1100 D
#2070
b10000100010000000000000 I
b10000100010000000000000 w
b10000100010000000000000 ;
b1 P
b1 Q
b1 M
b10 L
b100001000100000000000 H
b100001000100000000000 K
b100001000100000000000 :
b100001000100000000000 k
#2072
b10 N
b10 /
b10 R
#2080
b11 V
#2090
b1000 S
b1000 0
b1000 }
#2092
b100 T
b100 1
b100 y
b100 ""
#2097
b100 {
b100 2
b100 ~
#2106
0!
08
#2130
b1001 !"
b1001 ?
b1001 #"
b1001 &"
#2132
b1000000000000000000000000 $"
b1000000000000000000000000 3
b1000000000000000000000000 '"
#2135
b1001 ("
b1001 5
b1001 O
#2137
b1100 !"
b1100 ?
b1100 #"
b1100 &"
#2142
b1100 ("
b1100 5
b1100 O
#2145
b1001 V
#2152
b1100 V
#2177
b1 $"
b1 3
b1 '"
#2187
b1000000000 %"
1!
18
#2192
b1100 C
b1100 .
b1100 E
b1100 J
#2197
b1100 [
b10000 G
b10000 <
b10000 o
b10000 s
#2202
b10000 u
b10000 =
b10000 v
b10000 q
b10000 >
b10000 t
#2207
b10000 x
b10000 '
b10000 B
#2212
b10000 D
#2232
b100100000000000100 I
b100100000000000100 w
b100100000000000100 ;
b110000 _
b0 P
b0 M
b100 L
b1001000000000001 H
b1100000000000001001000000000001 K
b1100000000000001001000000000001 :
b1100000000000001001000000000001 k
#2234
b100 N
b100 /
b100 R
#2237
b100 n
b100 A
b100 p
b1 l
b1 9
b1 m
b1 z
#2242
b1100 U
b10100 q
b10100 >
b10100 t
1b
1%
b1 `
b1 #
b1 |
0i
04
#2252
b11 U
#2254
b1000000000 T
b1000000000 1
b1000000000 y
b1000000000 ""
b1100 S
b1100 0
b1100 }
#2259
b1000000000 {
b1000000000 2
b1000000000 ~
#2268
0!
08
#2282
b100 !"
b100 ?
b100 #"
b100 &"
#2287
b100 ("
b100 5
b100 O
#2294
b1000 !"
b1000 ?
b1000 #"
b1000 &"
#2299
b11111111111111111111111000001100 !"
b11111111111111111111111000001100 ?
b11111111111111111111111000001100 #"
b11111111111111111111111000001100 &"
b1000 ("
b1000 5
b1000 O
#2304
b11111111111111111111111000001100 ("
b11111111111111111111111000001100 5
b11111111111111111111111000001100 O
#2334
bx $"
bx 3
bx '"
#2349
b1000000000 %"
1!
18
#2354
b10000 C
b10000 .
b10000 E
b10000 J
#2359
b10100 G
b10100 <
b10100 o
b10100 s
#2364
b10100 u
b10100 =
b10100 v
b11000 q
b11000 >
b11000 t
#2369
b10100 x
b10100 '
b10100 B
#2374
b10100 D
#2394
b0 I
b0 w
b0 ;
b110001 _
b0 Q
b0 L
b0 H
b1100010000000000000000000000000 K
b1100010000000000000000000000000 :
b1100010000000000000000000000000 k
#2396
b0 N
b0 /
b0 R
#2404
1c
1(
#2409
b0 x
b0 '
b0 B
#2414
b11 S
b11 0
b11 }
b0 D
#2416
b11 T
b11 1
b11 y
b11 ""
#2421
1r
1&
b11 {
17
b11 2
b11 ~
#2426
b11000 u
b11000 =
b11000 v
#2430
0!
08
#2454
b11111111111111111111111000000011 !"
b11111111111111111111111000000011 ?
b11111111111111111111111000000011 #"
b11111111111111111111111000000011 &"
#2459
b11111111111111111111111000000011 ("
b11111111111111111111111000000011 5
b11111111111111111111111000000011 O
#2461
b0 !"
b0 ?
b0 #"
b0 &"
#2466
b0 ("
b0 5
b0 O
#2501
b1 $"
b1 3
b1 '"
#2511
b1000000000 %"
1!
18
#2516
b0 C
b0 .
b0 E
b0 J
#2521
b100 G
b100 <
b100 o
b100 s
#2526
b1000 u
b1000 =
b1000 v
b1000 q
b1000 >
b1000 t
#2556
b110000100000000000000000 I
b110000100000000000000000 w
b110000100000000000000000 ;
b10001 _
b11 P
b1 Q
b11 M
b1100001000000000000000 H
b100010001100001000000000000000 K
b100010001100001000000000000000 :
b100010001100001000000000000000 k
#2561
b0 n
b0 A
b0 p
b110000100000000000000000 x
b110000100000000000000000 '
b110000100000000000000000 B
b0 l
b0 9
b0 m
b0 z
#2566
0r
0&
b100 q
b100 >
b100 t
b110000100000000000000000 D
b0 {
07
b0 2
b0 ~
0c
0(
0b
0%
b0 `
b0 #
b0 |
1h
1-
1a
1$
1i
14
#2571
b100 u
b100 =
b100 v
b1000 x
b1000 '
b1000 B
b1 ("
b1 5
b1 O
#2576
b0 X
b1100 S
b1100 0
b1100 }
b100 x
b100 '
b100 B
b1000 D
#2581
b1 X
b100 D
#2592
0!
08
#2606
b11 !"
b11 ?
b11 #"
b11 &"
#2616
b1100 !"
b1100 ?
b1100 #"
b1100 &"
#2673
b1000000000 %"
1!
18
#2678
b100 C
b100 .
b100 E
b100 J
#2683
b1000 G
b1000 <
b1000 o
b1000 s
#2688
b1000 u
b1000 =
b1000 v
b1000 q
b1000 >
b1000 t
#2693
b1000 x
b1000 '
b1000 B
#2698
b1000 D
#2718
b11000000000000 I
b11000000000000 w
b11000000000000 ;
b0 _
b0 P
b0 Q
b0 M
b11 L
b110000000000 H
b110000000000 K
b110000000000 :
b110000000000 k
#2720
b11 N
b11 /
b11 R
#2728
b1 U
0h
0-
0a
0$
#2733
b1100 ("
b1100 5
b1100 O
b11 {
b11 2
b11 ~
#2738
b11 S
17
b11 0
b11 }
#2740
b1 T
b1 1
b1 y
b1 ""
#2743
b1100 U
#2745
b1 {
07
b1 2
b1 ~
#2754
0!
08
#2773
b1111 !"
b1111 ?
b1111 #"
b1111 &"
#2778
b110 !"
b110 ?
b110 #"
b110 &"
b1111 ("
b1111 5
b1111 O
#2780
b10000000000000000 $"
b10000000000000000 3
b10000000000000000 '"
#2783
b110 ("
b110 5
b110 O
#2785
b100 !"
b100 ?
b100 #"
b100 &"
#2788
b1111 U
#2790
b100 ("
b100 5
b100 O
#2793
b110 U
#2800
b100 U
#2825
b1 $"
b1 3
b1 '"
#2835
b1000000000 %"
1!
18
#2840
b1000 C
b1000 .
b1000 E
b1000 J
#2845
b100 Z
b1100 G
b1100 <
b1100 o
b1100 s
#2850
b1100 u
b1100 =
b1100 v
b1100 q
b1100 >
b1100 t
#2855
b1100 x
b1100 '
b1100 B
#2860
b1100 D
#2880
b10000100010000000000000 I
b10000100010000000000000 w
b10000100010000000000000 ;
b1 P
b1 Q
b1 M
b10 L
b100001000100000000000 H
b100001000100000000000 K
b100001000100000000000 :
b100001000100000000000 k
#2882
b10 N
b10 /
b10 R
#2890
b100 V
#2900
b1100 S
b1100 0
b1100 }
#2902
b100 T
b100 1
b100 y
b100 ""
#2907
b100 {
b100 2
b100 ~
#2916
0!
08
#2940
b1101 !"
b1101 ?
b1101 #"
b1101 &"
#2942
b1000000000000000000000000 $"
b1000000000000000000000000 3
b1000000000000000000000000 '"
#2945
b1101 ("
b1101 5
b1101 O
#2947
b10000 !"
b10000 ?
b10000 #"
b10000 &"
#2952
b10000 ("
b10000 5
b10000 O
#2955
b1101 V
#2962
b10000 V
#2987
b1 $"
b1 3
b1 '"
#2997
b1000000000 %"
1!
18
#3002
b1100 C
b1100 .
b1100 E
b1100 J
#3007
b10000 [
b10000 G
b10000 <
b10000 o
b10000 s
#3012
b10000 u
b10000 =
b10000 v
b10000 q
b10000 >
b10000 t
#3017
b10000 x
b10000 '
b10000 B
#3022
b10000 D
#3042
b100100000000000100 I
b100100000000000100 w
b100100000000000100 ;
b110000 _
b0 P
b0 M
b100 L
b1001000000000001 H
b1100000000000001001000000000001 K
b1100000000000001001000000000001 :
b1100000000000001001000000000001 k
#3044
b100 N
b100 /
b100 R
#3047
b100 n
b100 A
b100 p
b1 l
b1 9
b1 m
b1 z
#3052
b10000 U
b10100 q
b10100 >
b10100 t
1b
1%
b1 `
b1 #
b1 |
0i
04
#3062
b100 U
#3064
b1000000000 T
b1000000000 1
b1000000000 y
b1000000000 ""
b10000 S
b10000 0
b10000 }
#3069
b1000000000 {
b1000000000 2
b1000000000 ~
#3078
0!
08
#3092
b1000 !"
b1000 ?
b1000 #"
b1000 &"
#3097
b1000 ("
b1000 5
b1000 O
#3104
b1100 !"
b1100 ?
b1100 #"
b1100 &"
#3109
b11111111111111111111111000010000 !"
b11111111111111111111111000010000 ?
b11111111111111111111111000010000 #"
b11111111111111111111111000010000 &"
b1100 ("
b1100 5
b1100 O
#3114
b11111111111111111111111000010000 ("
b11111111111111111111111000010000 5
b11111111111111111111111000010000 O
#3144
bx $"
bx 3
bx '"
#3159
b1000000000 %"
1!
18
#3164
b10000 C
b10000 .
b10000 E
b10000 J
#3169
b10100 G
b10100 <
b10100 o
b10100 s
#3174
b10100 u
b10100 =
b10100 v
b11000 q
b11000 >
b11000 t
#3179
b10100 x
b10100 '
b10100 B
#3184
b10100 D
#3204
b0 I
b0 w
b0 ;
b110001 _
b0 Q
b0 L
b0 H
b1100010000000000000000000000000 K
b1100010000000000000000000000000 :
b1100010000000000000000000000000 k
#3206
b0 N
b0 /
b0 R
#3214
1c
1(
#3219
b0 x
b0 '
b0 B
#3224
b100 S
b100 0
b100 }
b0 D
#3226
b100 T
b100 1
b100 y
b100 ""
#3231
1r
1&
b100 {
17
b100 2
b100 ~
#3236
b11000 u
b11000 =
b11000 v
#3240
0!
08
#3264
b11111111111111111111111000000100 !"
b11111111111111111111111000000100 ?
b11111111111111111111111000000100 #"
b11111111111111111111111000000100 &"
#3269
b11111111111111111111111000000100 ("
b11111111111111111111111000000100 5
b11111111111111111111111000000100 O
#3271
b0 !"
b0 ?
b0 #"
b0 &"
#3276
b0 ("
b0 5
b0 O
